Analyzing the rise of the second Ku Klux Klan
…
## Observations: 2,023
## Variables: 9
## $ id          <int> 1, 2, 3, 4, 5, 6, 7, 8, 9, 10, 11, 12, 13, 14, 15,...
## $ state_id    <int> 61, 61, 61, 61, 61, 61, 61, 61, 61, 61, 61, 61, 61...
## $ city        <chr> "Birmingham", "Bessemer", "Montgomery", "Anniston"...
## $ klan_number <int> 1, 2, 3, 4, 6, 9, 11, 12, 14, 24, 31, 34, 43, 51, ...
## $ nickname    <chr> "R. E. Lee Klan", "Niles Burnett Klan", "Not Named...
## $ notes       <chr> "may be the oldest functioning Klan in the Invisib...
## $ latitude    <dbl> 33.52066, 33.40178, 32.36681, 33.65983, 33.52066, ...
## $ longitude   <dbl> -86.80249, -86.95444, -86.29997, -85.83163, -86.80...
## $ year        <int> 1924, 1926, 1923, 1924, 1924, 1931, 1931, 1923, 19...

as_tibble(klaverns)

## # A tibble: 2,023 x 9
##       id state_id       city klan_number                    nickname
##    <int>    <int>      <chr>       <int>                       <chr>
##  1     1       61 Birmingham           1              R. E. Lee Klan
##  2     2       61   Bessemer           2          Niles Burnett Klan
##  3     3       61 Montgomery           3                   Not Named
##  4     4       61   Anniston           4                   Not Named
##  5     5       61 Birmingham           6 Nathan Bedford Forrest Klan
##  6     6       61 Huntsville           9                   Not Named
##  7     7       61     Mobile          11                   Not Named
##  8     8       61  Stevenson          12                   Not Named
##  9     9       61 Tuscaloosa          14             Jack Jolly Klan
## 10    10       61    Sumpter          24                   Not Named
## # ... with 2,013 more rows, and 4 more variables: notes <chr>,
## #   latitude <dbl>, longitude <dbl>, year <int>
…
Now lets take a look at the states table

glimpse(states)

## Observations: 51
## Variables: 2
## $ id    <int> 61, 62, 63, 64, 65, 66, 67, 68, 69, 70, 71, 72, 73, 74, ...
## $ state <chr> "Alabama", "Alaska", "Arizona", "California", "Colorado"...

as_tibble(states)

## # A tibble: 51 x 2
##       id       state
##    <int>       <chr>
##  1    61     Alabama
##  2    62      Alaska
##  3    63     Arizona
##  4    64  California
##  5    65    Colorado
##  6    66 Connecticut
##  7    67          DC
##  8    68    Delaware
##  9    69     Florida
## 10    70     Georgia
## # ... with 41 more rows
…
klaverns <- filter(klaverns, state != "Panama")

Analyzing the data

Now lets answer some questions using dplyr. Note weve named the data set at the top in the section below, followed by the %>% operator. That means that we are applying all of the functions to the klaverns data set. That lets us get away with not having to write the name of the dataset again and again in each function. So instead of group_by(klaverns, state), we get group_by(klaverns).

Q: How many groups are there in each state?

statecount <- klaverns %>% 
  group_by(state)%>%
  summarise(count = n()) %>%
  arrange(desc(count))
as.tibble(statecount)

## # A tibble: 50 x 2
##           state count
##           <chr> <int>
##  1 Pennsylvania   193
##  2        Texas   163
##  3     New York   129
##  4     Illinois   107
##  5     Oklahoma   103
##  6         Ohio    94
##  7   California    80
##  8      Indiana    79
##  9     Missouri    74
## 10       Kansas    63
## # ... with 40 more rows
…
